\relax 
\providecommand\hyper@newdestlabel[2]{}
\providecommand*{\memsetcounter}[2]{}
\providecommand\HyperFirstAtBeginDocument{\AtBeginDocument}
\HyperFirstAtBeginDocument{\ifx\hyper@anchor\@undefined
\global\let\oldcontentsline\contentsline
\gdef\contentsline#1#2#3#4{\oldcontentsline{#1}{#2}{#3}}
\global\let\oldnewlabel\newlabel
\gdef\newlabel#1#2{\newlabelxx{#1}#2}
\gdef\newlabelxx#1#2#3#4#5#6{\oldnewlabel{#1}{{#2}{#3}}}
\AtEndDocument{\ifx\hyper@anchor\@undefined
\let\contentsline\oldcontentsline
\let\newlabel\oldnewlabel
\fi}
\fi}
\global\let\hyper@last\relax 
\gdef\HyperFirstAtBeginDocument#1{#1}
\providecommand\HyField@AuxAddToFields[1]{}
\providecommand\HyField@AuxAddToCoFields[2]{}
\providecommand\@newglossary[4]{}
\@newglossary{main}{glg}{gls}{glo}
\@newglossary{acronym}{alg}{acr}{acn}
\providecommand\@glsorder[1]{}
\providecommand\@istfilename[1]{}
\@istfilename{DIPLOMKA.ist}
\@glsorder{word}
\babel@aux{english}{}
\babel@aux{english}{}
\@writefile{toc}{\contentsline {subsection}{Citation of this thesis}{vi}{section*.1}\protected@file@percent }
\citation{wolf2008video}
\@writefile{lof}{\addvspace {10pt}}
\@writefile{lot}{\addvspace {10pt}}
\@writefile{toc}{\contentsline {chapter}{Introduction}{1}{chapter*.5}\protected@file@percent }
\citation{aleem2016game}
\@writefile{toc}{\contentsline {section}{The goal of the thesis}{2}{section*.6}\protected@file@percent }
\citation{pender2003uml}
\citation{urlPixelArtImage}
\citation{urlPixelArtImage}
\citation{gregory2018game}
\citation{kelly2012programming}
\@writefile{lof}{\addvspace {10pt}}
\@writefile{lot}{\addvspace {10pt}}
\@writefile{toc}{\contentsline {chapter}{\chapternumberline {1}Introduction to the topic}{3}{chapter.1}\protected@file@percent }
\@writefile{lof}{\contentsline {figure}{\numberline {1.1}{\ignorespaces An example of pixel art image}}{3}{figure.1.1}\protected@file@percent }
\newlabel{image:pixelArt}{{\M@TitleReference {1.1}{An example of pixel art image}}{3}{An example of pixel art image}{figure.1.1}{}}
\@writefile{lof}{\contentsline {figure}{\numberline {1.2}{\ignorespaces An example of a sprite sheet}}{4}{figure.1.2}\protected@file@percent }
\newlabel{image:spriteSheetExample}{{\M@TitleReference {1.2}{An example of a sprite sheet}}{4}{An example of a sprite sheet}{figure.1.2}{}}
\@writefile{lof}{\contentsline {figure}{\numberline {1.3}{\ignorespaces An overview of the entire sprite sheet creation process}}{4}{figure.1.3}\protected@file@percent }
\newlabel{image:overviewDiagram}{{\M@TitleReference {1.3}{An overview of the entire sprite sheet creation process}}{4}{An overview of the entire sprite sheet creation process}{figure.1.3}{}}
\@writefile{toc}{\contentsline {section}{\numberline {1.1}Game engine}{4}{section.1.1}\protected@file@percent }
\citation{larochelle2013new}
\citation{napieralla2018comparing}
\citation{cambadesign}
\citation{cambadesign}
\@writefile{lof}{\contentsline {figure}{\numberline {1.4}{\ignorespaces A use case diagram}}{5}{figure.1.4}\protected@file@percent }
\newlabel{image:useCase}{{\M@TitleReference {1.4}{A use case diagram}}{5}{A use case diagram}{figure.1.4}{}}
\@writefile{toc}{\contentsline {section}{\numberline {1.2}Visual representation of 2D games}{5}{section.1.2}\protected@file@percent }
\@writefile{toc}{\contentsline {section}{\numberline {1.3}Graphical projection}{5}{section.1.3}\protected@file@percent }
\citation{cambadesign}
\citation{cambadesign}
\@writefile{lof}{\contentsline {figure}{\numberline {1.5}{\ignorespaces An example of isometric game scene, simulating the 3D depth}}{6}{figure.1.5}\protected@file@percent }
\newlabel{image:gameScene}{{\M@TitleReference {1.5}{An example of isometric game scene, simulating the 3D depth}}{6}{An example of isometric game scene, simulating the 3D depth}{figure.1.5}{}}
\@writefile{toc}{\contentsline {subsection}{\numberline {1.3.1}Isometric projection}{6}{subsection.1.3.1}\protected@file@percent }
\@writefile{toc}{\contentsline {subsection}{\numberline {1.3.2}Dimetric projection}{6}{subsection.1.3.2}\protected@file@percent }
\@writefile{toc}{\contentsline {subsection}{\numberline {1.3.3}Trimetric projection}{6}{subsection.1.3.3}\protected@file@percent }
\citation{mullen2011mastering}
\@writefile{lof}{\contentsline {figure}{\numberline {1.6}{\ignorespaces An overview of the projection groups}}{7}{figure.1.6}\protected@file@percent }
\newlabel{image:projectionsDiagram}{{\M@TitleReference {1.6}{An overview of the projection groups}}{7}{An overview of the projection groups}{figure.1.6}{}}
\@writefile{lof}{\contentsline {figure}{\numberline {1.7}{\ignorespaces Examples of graphical projections}}{7}{figure.1.7}\protected@file@percent }
\newlabel{image:projectionsAll}{{\M@TitleReference {1.7}{Examples of graphical projections}}{7}{Examples of graphical projections}{figure.1.7}{}}
\@writefile{toc}{\contentsline {section}{\numberline {1.4}What is an isometric 2D game}{7}{section.1.4}\protected@file@percent }
\citation{mullen2011mastering}
\citation{urlBlender}
\@writefile{lof}{\contentsline {figure}{\numberline {1.8}{\ignorespaces An example of a spider, displayed from the side orthographic view}}{8}{figure.1.8}\protected@file@percent }
\newlabel{image:spiderOrtho1}{{\M@TitleReference {1.8}{An example of a spider, displayed from the side orthographic view}}{8}{An example of a spider, displayed from the side orthographic view}{figure.1.8}{}}
\@writefile{lof}{\contentsline {figure}{\numberline {1.9}{\ignorespaces An example of a spider, displayed from the top orthographic view}}{8}{figure.1.9}\protected@file@percent }
\newlabel{image:spiderOrtho2}{{\M@TitleReference {1.9}{An example of a spider, displayed from the top orthographic view}}{8}{An example of a spider, displayed from the top orthographic view}{figure.1.9}{}}
\@writefile{lof}{\contentsline {figure}{\numberline {1.10}{\ignorespaces An example of a spider, displayed in axonometric projection}}{8}{figure.1.10}\protected@file@percent }
\newlabel{image:spiderIso}{{\M@TitleReference {1.10}{An example of a spider, displayed in axonometric projection}}{8}{An example of a spider, displayed in axonometric projection}{figure.1.10}{}}
\@writefile{toc}{\contentsline {section}{\numberline {1.5}Blender}{8}{section.1.5}\protected@file@percent }
\@writefile{lof}{\contentsline {figure}{\numberline {1.11}{\ignorespaces Screenshot of Blender software}}{9}{figure.1.11}\protected@file@percent }
\newlabel{image:blenderShowoff}{{\M@TitleReference {1.11}{Screenshot of Blender software}}{9}{Screenshot of Blender software}{figure.1.11}{}}
\@writefile{toc}{\contentsline {section}{\numberline {1.6}Using 3D modeling tools for the creation of the isometric textures}{9}{section.1.6}\protected@file@percent }
\@writefile{toc}{\contentsline {section}{\numberline {1.7}The problem of creation of the isometric textures}{9}{section.1.7}\protected@file@percent }
\citation{schaefer2000postmortem}
\citation{url2DSkeletalAnimSoftware}
\citation{urlSpine}
\citation{urlSpineScreen}
\citation{urlSpineScreen}
\@writefile{lof}{\addvspace {10pt}}
\@writefile{lot}{\addvspace {10pt}}
\@writefile{toc}{\contentsline {chapter}{\chapternumberline {2}Survey of existing solutions}{11}{chapter.2}\protected@file@percent }
\@writefile{toc}{\contentsline {subsection}{\numberline {2.0.1}Spine}{11}{subsection.2.0.1}\protected@file@percent }
\citation{urDragonBones}
\citation{urlDragonBonesScreen}
\citation{urlDragonBonesScreen}
\@writefile{lof}{\contentsline {figure}{\numberline {2.1}{\ignorespaces A screenshot of the Spine software}}{12}{figure.2.1}\protected@file@percent }
\newlabel{image:spineScreen}{{\M@TitleReference {2.1}{A screenshot of the Spine software}}{12}{A screenshot of the Spine software}{figure.2.1}{}}
\@writefile{toc}{\contentsline {subsection}{\numberline {2.0.2}DragonBones}{12}{subsection.2.0.2}\protected@file@percent }
\@writefile{lof}{\contentsline {figure}{\numberline {2.2}{\ignorespaces A screenshot of the DragonBones software}}{12}{figure.2.2}\protected@file@percent }
\newlabel{image:dragonBonesScreen}{{\M@TitleReference {2.2}{A screenshot of the DragonBones software}}{12}{A screenshot of the DragonBones software}{figure.2.2}{}}
\citation{urlNima}
\@writefile{toc}{\contentsline {subsection}{\numberline {2.0.3}Nima}{13}{subsection.2.0.3}\protected@file@percent }
\@writefile{lof}{\contentsline {figure}{\numberline {2.3}{\ignorespaces A screenshot of the Nima software}}{13}{figure.2.3}\protected@file@percent }
\newlabel{image:nimaScreen}{{\M@TitleReference {2.3}{A screenshot of the Nima software}}{13}{A screenshot of the Nima software}{figure.2.3}{}}
\@writefile{toc}{\contentsline {section}{\numberline {2.1}Summary}{13}{section.2.1}\protected@file@percent }
\@writefile{lof}{\contentsline {figure}{\numberline {2.4}{\ignorespaces Character creation in the Nima software}}{14}{figure.2.4}\protected@file@percent }
\newlabel{image:nimaEx}{{\M@TitleReference {2.4}{Character creation in the Nima software}}{14}{Character creation in the Nima software}{figure.2.4}{}}
\citation{bierman2014understanding}
\citation{summerfield2010programming}
\citation{perry2005core}
\@writefile{lof}{\addvspace {10pt}}
\@writefile{lot}{\addvspace {10pt}}
\@writefile{toc}{\contentsline {chapter}{\chapternumberline {3}Realization}{15}{chapter.3}\protected@file@percent }
\@writefile{toc}{\contentsline {section}{\numberline {3.1}Used technology}{15}{section.3.1}\protected@file@percent }
\@writefile{toc}{\contentsline {section}{\numberline {3.2}Exporting a 3D model to 2D images}{16}{section.3.2}\protected@file@percent }
\@writefile{toc}{\contentsline {subsection}{\numberline {3.2.1}Setting up the Blender scene}{16}{subsection.3.2.1}\protected@file@percent }
\@writefile{lof}{\contentsline {figure}{\numberline {3.1}{\ignorespaces Camera parented to an empty}}{17}{figure.3.1}\protected@file@percent }
\newlabel{image:sceneSetupCamera}{{\M@TitleReference {3.1}{Camera parented to an empty}}{17}{Camera parented to an empty}{figure.3.1}{}}
\@writefile{lof}{\contentsline {figure}{\numberline {3.2}{\ignorespaces Hierarchy of objects in Blender scene}}{17}{figure.3.2}\protected@file@percent }
\newlabel{image:blenderHierarchy}{{\M@TitleReference {3.2}{Hierarchy of objects in Blender scene}}{17}{Hierarchy of objects in Blender scene}{figure.3.2}{}}
\citation{urlGitRepo}
\@writefile{lof}{\contentsline {figure}{\numberline {3.3}{\ignorespaces 3D scene setup}}{18}{figure.3.3}\protected@file@percent }
\newlabel{image:3dsceneExample1}{{\M@TitleReference {3.3}{3D scene setup}}{18}{3D scene setup}{figure.3.3}{}}
\@writefile{lof}{\contentsline {figure}{\numberline {3.4}{\ignorespaces A panel with properties of the camera}}{19}{figure.3.4}\protected@file@percent }
\newlabel{image:cameraSetupBlender}{{\M@TitleReference {3.4}{A panel with properties of the camera}}{19}{A panel with properties of the camera}{figure.3.4}{}}
\@writefile{lof}{\contentsline {figure}{\numberline {3.5}{\ignorespaces A comparison of a cow model rendered using an orthographic camera and perspective camera in Blender}}{19}{figure.3.5}\protected@file@percent }
\newlabel{image:cowPersVsOrtho}{{\M@TitleReference {3.5}{A comparison of a cow model rendered using an orthographic camera and perspective camera in Blender}}{19}{A comparison of a cow model rendered using an orthographic camera and perspective camera in Blender}{figure.3.5}{}}
\@writefile{toc}{\contentsline {subsection}{\numberline {3.2.2}The rendering script}{20}{subsection.3.2.2}\protected@file@percent }
\@writefile{lof}{\contentsline {figure}{\numberline {3.6}{\ignorespaces An example of render output files from Blender}}{20}{figure.3.6}\protected@file@percent }
\newlabel{image:blendOutputEx1}{{\M@TitleReference {3.6}{An example of render output files from Blender}}{20}{An example of render output files from Blender}{figure.3.6}{}}
\@writefile{lof}{\contentsline {figure}{\numberline {3.7}{\ignorespaces Animation of spider consisting of 6 frames. Only 3 angles (left, right-down, down) are displayed}}{21}{figure.3.7}\protected@file@percent }
\newlabel{image:blendOutputEx2}{{\M@TitleReference {3.7}{Animation of spider consisting of 6 frames. Only 3 angles (left, right-down, down) are displayed}}{21}{Animation of spider consisting of 6 frames. Only 3 angles (left, right-down, down) are displayed}{figure.3.7}{}}
\@writefile{toc}{\contentsline {section}{\numberline {3.3}Processing the Blender output}{21}{section.3.3}\protected@file@percent }
\@writefile{lof}{\contentsline {figure}{\numberline {3.8}{\ignorespaces Output image with a lot of transparent pixels}}{21}{figure.3.8}\protected@file@percent }
\newlabel{image:transparentPixEx}{{\M@TitleReference {3.8}{Output image with a lot of transparent pixels}}{21}{Output image with a lot of transparent pixels}{figure.3.8}{}}
\@writefile{toc}{\contentsline {subsection}{\numberline {3.3.1}Creating a minified sprite sheet}{22}{subsection.3.3.1}\protected@file@percent }
\@writefile{lof}{\contentsline {figure}{\numberline {3.9}{\ignorespaces Common rectangle for two images, used for cutting off the transparent pixels}}{22}{figure.3.9}\protected@file@percent }
\newlabel{image:minimalRectEx}{{\M@TitleReference {3.9}{Common rectangle for two images, used for cutting off the transparent pixels}}{22}{Common rectangle for two images, used for cutting off the transparent pixels}{figure.3.9}{}}
\@writefile{toc}{\contentsline {subsection}{\numberline {3.3.2}The algorithm}{23}{subsection.3.3.2}\protected@file@percent }
\@writefile{toc}{\contentsline {subsection}{\numberline {3.3.3}The origin point}{23}{subsection.3.3.3}\protected@file@percent }
\newlabel{sec:originPoint}{{\M@TitleReference {3.3.3}{The origin point}}{23}{The origin point}{subsection.3.3.3}{}}
\@writefile{lof}{\contentsline {figure}{\numberline {3.10}{\ignorespaces Monster drawn using the upper-left corner as an origin point}}{24}{figure.3.10}\protected@file@percent }
\newlabel{image:originEx1}{{\M@TitleReference {3.10}{Monster drawn using the upper-left corner as an origin point}}{24}{Monster drawn using the upper-left corner as an origin point}{figure.3.10}{}}
\@writefile{lof}{\contentsline {figure}{\numberline {3.11}{\ignorespaces Monster drawn using the calculated origin point}}{24}{figure.3.11}\protected@file@percent }
\newlabel{image:originEx2}{{\M@TitleReference {3.11}{Monster drawn using the calculated origin point}}{24}{Monster drawn using the calculated origin point}{figure.3.11}{}}
\@writefile{toc}{\contentsline {subsection}{\numberline {3.3.4}Calculating the origin point}{25}{subsection.3.3.4}\protected@file@percent }
\@writefile{lof}{\contentsline {figure}{\numberline {3.12}{\ignorespaces The origin point mark, displayed as a green sphere}}{25}{figure.3.12}\protected@file@percent }
\newlabel{image:originEx3}{{\M@TitleReference {3.12}{The origin point mark, displayed as a green sphere}}{25}{The origin point mark, displayed as a green sphere}{figure.3.12}{}}
\@writefile{lof}{\contentsline {figure}{\numberline {3.13}{\ignorespaces Minimal bounding box, highlighted with a white border}}{25}{figure.3.13}\protected@file@percent }
\newlabel{image:originEx4}{{\M@TitleReference {3.13}{Minimal bounding box, highlighted with a white border}}{25}{Minimal bounding box, highlighted with a white border}{figure.3.13}{}}
\@writefile{lof}{\contentsline {figure}{\numberline {3.14}{\ignorespaces The position of the origin point}}{26}{figure.3.14}\protected@file@percent }
\newlabel{image:originEx5}{{\M@TitleReference {3.14}{The position of the origin point}}{26}{The position of the origin point}{figure.3.14}{}}
\@writefile{lof}{\contentsline {figure}{\numberline {3.15}{\ignorespaces The final sprite sheet for walk animation of human, facing left}}{26}{figure.3.15}\protected@file@percent }
\newlabel{image:walkL}{{\M@TitleReference {3.15}{The final sprite sheet for walk animation of human, facing left}}{26}{The final sprite sheet for walk animation of human, facing left}{figure.3.15}{}}
\@writefile{lof}{\contentsline {figure}{\numberline {3.16}{\ignorespaces The final sprite sheet for walk animation of human, facing up}}{27}{figure.3.16}\protected@file@percent }
\newlabel{image:walkU}{{\M@TitleReference {3.16}{The final sprite sheet for walk animation of human, facing up}}{27}{The final sprite sheet for walk animation of human, facing up}{figure.3.16}{}}
\@writefile{toc}{\contentsline {subsection}{\numberline {3.3.5}Alpha sensitivity lower bound}{27}{subsection.3.3.5}\protected@file@percent }
\newlabel{sec:alphaSensitivity}{{\M@TitleReference {3.3.5}{Alpha sensitivity lower bound}}{27}{Alpha sensitivity lower bound}{subsection.3.3.5}{}}
\@writefile{toc}{\contentsline {section}{\numberline {3.4}Other usage of the Spritesheet manager application}{27}{section.3.4}\protected@file@percent }
\newlabel{sec:otherUsageSM}{{\M@TitleReference {3.4}{Other usage of the Spritesheet manager application}}{27}{Other usage of the Spritesheet manager application}{section.3.4}{}}
\@writefile{toc}{\contentsline {subsection}{\numberline {3.4.1}Usage for a classic animation}{27}{subsection.3.4.1}\protected@file@percent }
\@writefile{lof}{\contentsline {figure}{\numberline {3.17}{\ignorespaces Image with-semi transparent pixels}}{28}{figure.3.17}\protected@file@percent }
\newlabel{image:alphaSensExample}{{\M@TitleReference {3.17}{Image with-semi transparent pixels}}{28}{Image with-semi transparent pixels}{figure.3.17}{}}
\@writefile{lof}{\contentsline {figure}{\numberline {3.18}{\ignorespaces An example of a water splash sprite sheet}}{28}{figure.3.18}\protected@file@percent }
\newlabel{image:waterHitS}{{\M@TitleReference {3.18}{An example of a water splash sprite sheet}}{28}{An example of a water splash sprite sheet}{figure.3.18}{}}
\@writefile{toc}{\contentsline {subsection}{\numberline {3.4.2}Cutting off the transparent pixels for a single image}{28}{subsection.3.4.2}\protected@file@percent }
\citation{urlSpriteDiablo}
\@writefile{lof}{\contentsline {figure}{\numberline {3.19}{\ignorespaces Resulting render of a couch}}{29}{figure.3.19}\protected@file@percent }
\newlabel{image:couchExampleRender}{{\M@TitleReference {3.19}{Resulting render of a couch}}{29}{Resulting render of a couch}{figure.3.19}{}}
\@writefile{lof}{\contentsline {figure}{\numberline {3.20}{\ignorespaces Cropped image of a couch}}{29}{figure.3.20}\protected@file@percent }
\newlabel{image:couchCrop}{{\M@TitleReference {3.20}{Cropped image of a couch}}{29}{Cropped image of a couch}{figure.3.20}{}}
\@writefile{toc}{\contentsline {subsection}{\numberline {3.4.3}Creation of a floor tile}{29}{subsection.3.4.3}\protected@file@percent }
\@writefile{lof}{\contentsline {figure}{\numberline {3.21}{\ignorespaces Resulting isometric floor tile texture}}{30}{figure.3.21}\protected@file@percent }
\newlabel{image:tileLibraryWood2}{{\M@TitleReference {3.21}{Resulting isometric floor tile texture}}{30}{Resulting isometric floor tile texture}{figure.3.21}{}}
\@writefile{lof}{\contentsline {figure}{\numberline {3.22}{\ignorespaces Floor tile sprite sheet used in Diablo 2}}{30}{figure.3.22}\protected@file@percent }
\newlabel{image:diablo2Sprite}{{\M@TitleReference {3.22}{Floor tile sprite sheet used in Diablo 2}}{30}{Floor tile sprite sheet used in Diablo 2}{figure.3.22}{}}
\@writefile{lof}{\contentsline {figure}{\numberline {3.23}{\ignorespaces Isometric tile in Blender}}{31}{figure.3.23}\protected@file@percent }
\newlabel{image:floortileBlender}{{\M@TitleReference {3.23}{Isometric tile in Blender}}{31}{Isometric tile in Blender}{figure.3.23}{}}
\@writefile{lof}{\addvspace {10pt}}
\@writefile{lot}{\addvspace {10pt}}
\@writefile{toc}{\contentsline {chapter}{\chapternumberline {4}Testing}{33}{chapter.4}\protected@file@percent }
\@writefile{toc}{\contentsline {section}{\numberline {4.1}Blender rendering script}{33}{section.4.1}\protected@file@percent }
\@writefile{lof}{\contentsline {figure}{\numberline {4.1}{\ignorespaces The result of the Blender render script's automated tests}}{33}{figure.4.1}\protected@file@percent }
\newlabel{image:tutRunBlendTest3}{{\M@TitleReference {4.1}{The result of the Blender render script's automated tests}}{33}{The result of the Blender render script's automated tests}{figure.4.1}{}}
\@writefile{toc}{\contentsline {section}{\numberline {4.2}Spritesheet manager}{33}{section.4.2}\protected@file@percent }
\@writefile{lof}{\contentsline {figure}{\numberline {4.2}{\ignorespaces An example of passing automated tests}}{34}{figure.4.2}\protected@file@percent }
\newlabel{image:spritesheetMTest3}{{\M@TitleReference {4.2}{An example of passing automated tests}}{34}{An example of passing automated tests}{figure.4.2}{}}
\citation{urlPixiJS}
\citation{van2015learn}
\citation{porter2012component}
\@writefile{lof}{\addvspace {10pt}}
\@writefile{lot}{\addvspace {10pt}}
\@writefile{toc}{\contentsline {chapter}{\chapternumberline {5}Game prototype}{35}{chapter.5}\protected@file@percent }
\@writefile{toc}{\contentsline {section}{\numberline {5.1}Used technology}{35}{section.5.1}\protected@file@percent }
\@writefile{lof}{\contentsline {figure}{\numberline {5.1}{\ignorespaces UML diagram of a system using component architecture}}{36}{figure.5.1}\protected@file@percent }
\newlabel{image:componentArchitecture}{{\M@TitleReference {5.1}{UML diagram of a system using component architecture}}{36}{UML diagram of a system using component architecture}{figure.5.1}{}}
\@writefile{toc}{\contentsline {section}{\numberline {5.2}Loading the textures and animation data to a game}{36}{section.5.2}\protected@file@percent }
\@writefile{lof}{\contentsline {figure}{\numberline {5.2}{\ignorespaces Drawn monster using the calculated origin point}}{36}{figure.5.2}\protected@file@percent }
\newlabel{image:loadingEx1}{{\M@TitleReference {5.2}{Drawn monster using the calculated origin point}}{36}{Drawn monster using the calculated origin point}{figure.5.2}{}}
\@writefile{toc}{\contentsline {section}{\numberline {5.3}Animation JSON}{36}{section.5.3}\protected@file@percent }
\citation{urlGitRepo}
\@writefile{toc}{\contentsline {subsection}{\numberline {5.3.1}Variant for model facing in 8 directions}{37}{subsection.5.3.1}\protected@file@percent }
\@writefile{lof}{\contentsline {figure}{\numberline {5.3}{\ignorespaces An example of a json file for model facing in 8 directions}}{37}{figure.5.3}\protected@file@percent }
\newlabel{image:jsonExample1}{{\M@TitleReference {5.3}{An example of a json file for model facing in 8 directions}}{37}{An example of a json file for model facing in 8 directions}{figure.5.3}{}}
\citation{urlGitRepo}
\@writefile{toc}{\contentsline {subsection}{\numberline {5.3.2}Other variant}{38}{subsection.5.3.2}\protected@file@percent }
\newlabel{sec::otherVariantJSON}{{\M@TitleReference {5.3.2}{Other variant}}{38}{Other variant}{subsection.5.3.2}{}}
\@writefile{lof}{\contentsline {figure}{\numberline {5.4}{\ignorespaces An example of a json file for model seen from one angle}}{38}{figure.5.4}\protected@file@percent }
\newlabel{image:jsonExample1}{{\M@TitleReference {5.4}{An example of a json file for model seen from one angle}}{38}{An example of a json file for model seen from one angle}{figure.5.4}{}}
\@writefile{toc}{\contentsline {section}{\numberline {5.4}Drawing the textures in a game}{38}{section.5.4}\protected@file@percent }
\bibstyle{csn690}
\bibdata{mybibliographyfile}
\@writefile{lof}{\addvspace {10pt}}
\@writefile{lot}{\addvspace {10pt}}
\@writefile{toc}{\contentsline {chapter}{Conclusion}{39}{chapter*.13}\protected@file@percent }
\bibcite{wolf2008video}{1}
\bibcite{aleem2016game}{2}
\bibcite{pender2003uml}{3}
\bibcite{urlPixelArtImage}{4}
\bibcite{gregory2018game}{5}
\bibcite{kelly2012programming}{6}
\bibcite{larochelle2013new}{7}
\bibcite{napieralla2018comparing}{8}
\bibcite{cambadesign}{9}
\bibcite{mullen2011mastering}{10}
\bibcite{urlBlender}{11}
\bibcite{schaefer2000postmortem}{12}
\bibcite{url2DSkeletalAnimSoftware}{13}
\@writefile{toc}{\contentsline {chapter}{Bibliography}{41}{chapter*.14}\protected@file@percent }
\bibcite{urlSpine}{14}
\bibcite{urlSpineScreen}{15}
\bibcite{urDragonBones}{16}
\bibcite{urlDragonBonesScreen}{17}
\bibcite{urlNima}{18}
\bibcite{bierman2014understanding}{19}
\bibcite{summerfield2010programming}{20}
\bibcite{perry2005core}{21}
\bibcite{urlGitRepo}{22}
\bibcite{urlSpriteDiablo}{23}
\bibcite{urlPixiJS}{24}
\bibcite{van2015learn}{25}
\bibcite{porter2012component}{26}
\bibcite{10.1145/2901739.2901743}{27}
\@writefile{lof}{\addvspace {10pt}}
\@writefile{lot}{\addvspace {10pt}}
\@writefile{toc}{\contentsline {appendix}{\chapternumberline {A}Acronyms}{43}{appendix.A}\protected@file@percent }
\citation{urlGitRepo}
\citation{urlBlender}
\@writefile{lof}{\addvspace {10pt}}
\@writefile{lot}{\addvspace {10pt}}
\@writefile{toc}{\contentsline {appendix}{\chapternumberline {B}User manual}{45}{appendix.B}\protected@file@percent }
\@writefile{toc}{\contentsline {section}{\numberline {B.1}Minimal requirements}{45}{section.B.1}\protected@file@percent }
\@writefile{toc}{\contentsline {subsection}{\numberline {B.1.1}Spritesheet manager}{45}{subsection.B.1.1}\protected@file@percent }
\@writefile{toc}{\contentsline {subsection}{\numberline {B.1.2}Exporting 3D model to 2D textures using Blender}{45}{subsection.B.1.2}\protected@file@percent }
\citation{10.1145/2901739.2901743}
\@writefile{toc}{\contentsline {subsection}{\numberline {B.1.3}Game prototype}{46}{subsection.B.1.3}\protected@file@percent }
\@writefile{lof}{\contentsline {figure}{\numberline {B.1}{\ignorespaces An error when the web browser does not support webGL}}{46}{figure.B.1}\protected@file@percent }
\newlabel{image:tutWebGL}{{\M@TitleReference {B.1}{An error when the web browser does not support webGL}}{46}{An error when the web browser does not support webGL}{figure.B.1}{}}
\@writefile{toc}{\contentsline {section}{\numberline {B.2}Using an existing 3D model in Blender and exporting to 2D images}{47}{section.B.2}\protected@file@percent }
\newlabel{sec:useExistingBlend}{{\M@TitleReference {B.2}{Using an existing 3D model in Blender and exporting to 2D images}}{47}{Using an existing 3D model in Blender and exporting to 2D images}{section.B.2}{}}
\@writefile{lof}{\contentsline {figure}{\numberline {B.2}{\ignorespaces You can choose an axisting animation from the menu.}}{47}{figure.B.2}\protected@file@percent }
\newlabel{image:tut5}{{\M@TitleReference {B.2}{You can choose an axisting animation from the menu.}}{47}{You can choose an axisting animation from the menu}{figure.B.2}{}}
\@writefile{lof}{\contentsline {figure}{\numberline {B.3}{\ignorespaces The cursor shows where the animation ends. On the right, the end number must equal to the end frame of the animation, in this case 26.}}{48}{figure.B.3}\protected@file@percent }
\newlabel{image:tut7}{{\M@TitleReference {B.3}{The cursor shows where the animation ends. On the right, the end number must equal to the end frame of the animation, in this case 26.}}{48}{The cursor shows where the animation ends. On the right, the end number must equal to the end frame of the animation, in this case 26}{figure.B.3}{}}
\@writefile{lof}{\contentsline {figure}{\numberline {B.4}{\ignorespaces Running the render script}}{48}{figure.B.4}\protected@file@percent }
\newlabel{image:tut8}{{\M@TitleReference {B.4}{Running the render script}}{48}{Running the render script}{figure.B.4}{}}
\@writefile{toc}{\contentsline {section}{\numberline {B.3}Creating a 3D model in Blender and exporting in to 2D images}{48}{section.B.3}\protected@file@percent }
\@writefile{lof}{\contentsline {figure}{\numberline {B.5}{\ignorespaces Prepared template.blend scene}}{49}{figure.B.5}\protected@file@percent }
\newlabel{image:tut1}{{\M@TitleReference {B.5}{Prepared template.blend scene}}{49}{Prepared template.blend scene}{figure.B.5}{}}
\@writefile{lof}{\contentsline {figure}{\numberline {B.6}{\ignorespaces Created model must be facing left}}{50}{figure.B.6}\protected@file@percent }
\newlabel{image:tut2}{{\M@TitleReference {B.6}{Created model must be facing left}}{50}{Created model must be facing left}{figure.B.6}{}}
\@writefile{lof}{\contentsline {figure}{\numberline {B.7}{\ignorespaces Moving the camera by changing the Z position}}{51}{figure.B.7}\protected@file@percent }
\newlabel{image:tut3}{{\M@TitleReference {B.7}{Moving the camera by changing the Z position}}{51}{Moving the camera by changing the Z position}{figure.B.7}{}}
\@writefile{lof}{\contentsline {figure}{\numberline {B.8}{\ignorespaces Checking the final monster size for a game}}{51}{figure.B.8}\protected@file@percent }
\newlabel{image:tut4}{{\M@TitleReference {B.8}{Checking the final monster size for a game}}{51}{Checking the final monster size for a game}{figure.B.8}{}}
\@writefile{toc}{\contentsline {subsection}{\numberline {B.3.1}Expected limitations}{51}{subsection.B.3.1}\protected@file@percent }
\@writefile{lof}{\contentsline {figure}{\numberline {B.9}{\ignorespaces Creating a new animation action}}{52}{figure.B.9}\protected@file@percent }
\newlabel{image:tut6}{{\M@TitleReference {B.9}{Creating a new animation action}}{52}{Creating a new animation action}{figure.B.9}{}}
\@writefile{toc}{\contentsline {section}{\numberline {B.4}Creating a floorile texture}{52}{section.B.4}\protected@file@percent }
\newlabel{sec:createFloortileTut}{{\M@TitleReference {B.4}{Creating a floorile texture}}{52}{Creating a floorile texture}{section.B.4}{}}
\@writefile{lof}{\contentsline {figure}{\numberline {B.10}{\ignorespaces A dropdown menu with available materials for a floor tile}}{53}{figure.B.10}\protected@file@percent }
\newlabel{image:tutFloortile1}{{\M@TitleReference {B.10}{A dropdown menu with available materials for a floor tile}}{53}{A dropdown menu with available materials for a floor tile}{figure.B.10}{}}
\@writefile{lof}{\contentsline {figure}{\numberline {B.11}{\ignorespaces Rendering a floor tile}}{53}{figure.B.11}\protected@file@percent }
\newlabel{image:tutFloortile2}{{\M@TitleReference {B.11}{Rendering a floor tile}}{53}{Rendering a floor tile}{figure.B.11}{}}
\@writefile{lof}{\contentsline {figure}{\numberline {B.12}{\ignorespaces Saving the rendered file as an image to a disc}}{54}{figure.B.12}\protected@file@percent }
\newlabel{image:tutFloortile3}{{\M@TitleReference {B.12}{Saving the rendered file as an image to a disc}}{54}{Saving the rendered file as an image to a disc}{figure.B.12}{}}
\@writefile{toc}{\contentsline {section}{\numberline {B.5}Creating a sprite sheet and animation data using Spritesheet manager}{54}{section.B.5}\protected@file@percent }
\@writefile{toc}{\contentsline {subsection}{\numberline {B.5.1}Creating data for isometric characters}{54}{subsection.B.5.1}\protected@file@percent }
\newlabel{sec:createIsoTut}{{\M@TitleReference {B.5.1}{Creating data for isometric characters}}{54}{Creating data for isometric characters}{subsection.B.5.1}{}}
\@writefile{lof}{\contentsline {figure}{\numberline {B.13}{\ignorespaces Dragging the input images onto to the Spritesheet manager application}}{55}{figure.B.13}\protected@file@percent }
\newlabel{image:tut9}{{\M@TitleReference {B.13}{Dragging the input images onto to the Spritesheet manager application}}{55}{Dragging the input images onto to the Spritesheet manager application}{figure.B.13}{}}
\@writefile{lof}{\contentsline {figure}{\numberline {B.14}{\ignorespaces Spritesheet manager application interface}}{56}{figure.B.14}\protected@file@percent }
\newlabel{image:tut10}{{\M@TitleReference {B.14}{Spritesheet manager application interface}}{56}{Spritesheet manager application interface}{figure.B.14}{}}
\@writefile{toc}{\contentsline {subsection}{\numberline {B.5.2}Creating data for any animation seen from only one angle}{56}{subsection.B.5.2}\protected@file@percent }
\newlabel{sec:createNonIsoTut}{{\M@TitleReference {B.5.2}{Creating data for any animation seen from only one angle}}{56}{Creating data for any animation seen from only one angle}{subsection.B.5.2}{}}
\@writefile{lof}{\contentsline {figure}{\numberline {B.15}{\ignorespaces The Automatic angle processing tab}}{57}{figure.B.15}\protected@file@percent }
\newlabel{image:tut11}{{\M@TitleReference {B.15}{The Automatic angle processing tab}}{57}{The Automatic angle processing tab}{figure.B.15}{}}
\@writefile{lof}{\contentsline {figure}{\numberline {B.16}{\ignorespaces Final sprite sheet for non-isometric animation}}{58}{figure.B.16}\protected@file@percent }
\newlabel{image:outputFireball}{{\M@TitleReference {B.16}{Final sprite sheet for non-isometric animation}}{58}{Final sprite sheet for non-isometric animation}{figure.B.16}{}}
\@writefile{toc}{\contentsline {subsection}{\numberline {B.5.3}Cutting off transparent pixels from one image}{58}{subsection.B.5.3}\protected@file@percent }
\newlabel{sec:cutOffTransparentTut}{{\M@TitleReference {B.5.3}{Cutting off transparent pixels from one image}}{58}{Cutting off transparent pixels from one image}{subsection.B.5.3}{}}
\@writefile{toc}{\contentsline {subsection}{\numberline {B.5.4}Expected limitations}{58}{subsection.B.5.4}\protected@file@percent }
\@writefile{toc}{\contentsline {section}{\numberline {B.6}Running the game prototype}{59}{section.B.6}\protected@file@percent }
\@writefile{lof}{\contentsline {figure}{\numberline {B.17}{\ignorespaces The terminal output, when running the game prototype}}{59}{figure.B.17}\protected@file@percent }
\newlabel{image:runningGameExample}{{\M@TitleReference {B.17}{The terminal output, when running the game prototype}}{59}{The terminal output, when running the game prototype}{figure.B.17}{}}
\@writefile{toc}{\contentsline {section}{\numberline {B.7}Playing the game prototype}{59}{section.B.7}\protected@file@percent }
\@writefile{lof}{\contentsline {figure}{\numberline {B.18}{\ignorespaces The game prototype, when navigating to the localhost in a web browser}}{60}{figure.B.18}\protected@file@percent }
\newlabel{image:gameExample}{{\M@TitleReference {B.18}{The game prototype, when navigating to the localhost in a web browser}}{60}{The game prototype, when navigating to the localhost in a web browser}{figure.B.18}{}}
\@writefile{toc}{\contentsline {section}{\numberline {B.8}Running the tests}{60}{section.B.8}\protected@file@percent }
\@writefile{toc}{\contentsline {subsection}{\numberline {B.8.1}Blender rendering script}{60}{subsection.B.8.1}\protected@file@percent }
\@writefile{lof}{\contentsline {figure}{\numberline {B.19}{\ignorespaces Using exec function to compile a script and run it}}{61}{figure.B.19}\protected@file@percent }
\newlabel{image:blenderScriptExec}{{\M@TitleReference {B.19}{Using exec function to compile a script and run it}}{61}{Using exec function to compile a script and run it}{figure.B.19}{}}
\@writefile{lof}{\contentsline {figure}{\numberline {B.20}{\ignorespaces Running a script in Blender}}{61}{figure.B.20}\protected@file@percent }
\newlabel{image:tutRunBlendTest1}{{\M@TitleReference {B.20}{Running a script in Blender}}{61}{Running a script in Blender}{figure.B.20}{}}
\@writefile{lof}{\contentsline {figure}{\numberline {B.21}{\ignorespaces Showing a console window in Blender}}{62}{figure.B.21}\protected@file@percent }
\newlabel{image:tutRunBlendTest2}{{\M@TitleReference {B.21}{Showing a console window in Blender}}{62}{Showing a console window in Blender}{figure.B.21}{}}
\@writefile{toc}{\contentsline {subsection}{\numberline {B.8.2}Tests for the Spritesheet manager}{62}{subsection.B.8.2}\protected@file@percent }
\@writefile{lof}{\contentsline {figure}{\numberline {B.22}{\ignorespaces Tests tab}}{63}{figure.B.22}\protected@file@percent }
\newlabel{image:spritesheetMTest1}{{\M@TitleReference {B.22}{Tests tab}}{63}{Tests tab}{figure.B.22}{}}
\@writefile{lof}{\contentsline {figure}{\numberline {B.23}{\ignorespaces Tester interface}}{63}{figure.B.23}\protected@file@percent }
\newlabel{image:spritesheetMTest2}{{\M@TitleReference {B.23}{Tester interface}}{63}{Tester interface}{figure.B.23}{}}
\citation{urlGitRepo}
\@writefile{lof}{\addvspace {10pt}}
\@writefile{lot}{\addvspace {10pt}}
\@writefile{toc}{\contentsline {appendix}{\chapternumberline {C}Content of the data media, provided along with this thesis}{65}{appendix.C}\protected@file@percent }
\memsetcounter{lastsheet}{84}
\memsetcounter{lastpage}{66}
